{
  "project_info": {
    "project_number": "402176013216",
    "project_id": "the-cana-room",
    "storage_bucket": "the-cana-room.appspot.com"
  },
  "client": [
    {
      "client_info": {
        "mobilesdk_app_id": "1:402176013216:android:1bd35c51f6d879cfa46ac5",
        "android_client_info": {
          "package_name": "com.example.beers"
        }
      },
      "oauth_client": [
        {
          "client_id": "402176013216-7uad9uatfc4p056h99j4q7alket7ccha.apps.googleusercontent.com",
          "client_type": 1,
          "android_info": {
            "package_name": "com.example.beers",
            "certificate_hash": "093b034f2a15811f4eaf0f6fdc0f9680d14162c4"
          }
        },
        {
          "client_id": "402176013216-2as1ih8dd1u96jvhgk3l04qcfbrtrgja.apps.googleusercontent.com",
          "client_type": 3
        }
      ],
      "api_key": [
        {
          "current_key": "AIzaSyCQKgwOxGoK9S3FsGEh_e9a3RVxEE2Jpc0"
        }
      ],
      "services": {
        "appinvite_service": {
          "other_platform_oauth_client": [
            {
              "client_id": "402176013216-2as1ih8dd1u96jvhgk3l04qcfbrtrgja.apps.googleusercontent.com",
              "client_type": 3
            }
          ]
        }
      }
    }
  ],
  "configuration_version": "1"
}